<?xml version="1.0" encoding="UTF-8" standalone="no"?>
<svg width="25px" height="26px" viewBox="0 0 25 26" version="1.1" xmlns="http://www.w3.org/2000/svg" xmlns:xlink="http://www.w3.org/1999/xlink" xmlns:sketch="http://www.bohemiancoding.com/sketch/ns">
    <!-- Generator: Sketch 3.0.4 (8053) - http://www.bohemiancoding.com/sketch -->
    <title>weightIcon</title>
    <desc>Created with Sketch.</desc>
    <defs></defs>
    <g id="Page-1" stroke="none" stroke-width="1" fill="none" fill-rule="evenodd" sketch:type="MSPage">
        <g id="weight9" sketch:type="MSLayerGroup" transform="translate(-2.000000, -1.000000)" fill="#D41111">
            <path d="M25.1661525,12.6594671 L25.0834387,12.6594671 L25.0834387,11.520793 C25.0834387,10.4343183 24.5375276,9.55299912 23.864538,9.55299912 L23.5133803,9.55299912 L23.5133803,7.9688097 C23.5133803,6.88233496 22.9667172,6.00101579 22.2944796,6.00101579 L20.2544565,6.00101579 C19.5814669,6.00101579 19.0363077,6.88233496 19.0363077,7.9688097 L19.0363077,12.6594671 L9.92500641,12.6594671 L9.92500641,7.9688097 C9.92500641,6.88233496 9.37834337,6.00101579 8.70610573,6.00101579 L6.66608258,6.00101579 C5.99384495,6.00101579 5.44793386,6.88233496 5.44793386,7.9688097 L5.44793386,9.55299912 L5.09452034,9.55299912 C4.4222827,9.55299912 3.87637161,10.4343183 3.87637161,11.520793 L3.87637161,12.6594671 L3.71620761,12.6594671 C3.01990778,12.6594671 2.45294226,13.5626372 2.45294226,14.6891719 C2.45294226,15.8144926 3.01990778,16.7176627 3.71620761,16.7176627 L3.87637161,16.7176627 L3.87637161,17.8563368 C3.87637161,18.9428115 4.4222827,19.8241307 5.09452034,19.8241307 L5.44793386,19.8241307 L5.44793386,21.4071062 C5.44793386,22.4935809 5.99384495,23.3749001 6.66608258,23.3749001 L8.70610573,23.3749001 C9.37834337,23.3749001 9.92500641,22.4935809 9.92500641,21.4071062 L9.92500641,16.7176627 L19.0363077,16.7176627 L19.0363077,21.4071062 C19.0363077,22.4935809 19.5814669,23.3749001 20.2544565,23.3749001 L22.2944796,23.3749001 C22.9674692,23.3749001 23.5133803,22.4935809 23.5133803,21.4071062 L23.5133803,19.8241307 L23.864538,19.8241307 C24.5375276,19.8241307 25.0834387,18.9428115 25.0834387,17.8563368 L25.0834387,16.7176627 L25.1654005,16.7176627 C25.8632042,16.7176627 26.4294178,15.8144926 26.4294178,14.6891719 C26.4301697,13.5626372 25.8639562,12.6594671 25.1661525,12.6594671 L25.1661525,12.6594671 Z" id="Shape" sketch:type="MSShapeGroup" transform="translate(14.484041, 14.498584) rotate(-45.000000) translate(-14.484041, -14.498584) "></path>
        </g>
    </g>
</svg>